
<svg class="svg-icon" 
style="width: 30px; height: 30px; overflow: hidden; padding-left: 25px;" fill="#A86D79" viewBox="0 0 1024 1024" version="1.1" xmlns="http://www.w3.org/2000/svg"><path d="M147.374257 158.246733l10.351981-10.351981 717.269914 717.269914-10.351981 10.351981-717.269914-717.269914Z"  /><path d="M147.374139 865.168212l717.269914-717.269914 10.351981 10.351981-717.269914 717.269914-10.351981-10.351981Z"  /></svg>
