<?xml version="1.0" encoding="utf-8"?>
<!-- Generator: Adobe Illustrator 25.2.1, SVG Export Plug-In . SVG Version: 6.00 Build 0)  -->
<svg version="1.1" id="Calque_1" xmlns="http://www.w3.org/2000/svg" xmlns:xlink="http://www.w3.org/1999/xlink" x="0px" y="0px"
	 viewBox="0 0 190.6 60" style="enable-background:new 0 0 190.6 60;" xml:space="preserve">
<style type="text/css">
	.st0{fill:none;stroke:#A86D79;stroke-miterlimit:10;}
	@media screen and (min-width: 767px) { .st0{stroke:#fff} }
</style>
<g>
	<line class="st0" x1="63.7" y1="43.5" x2="13.6" y2="43.5"/>
	<line class="st0" x1="171.3" y1="29.5" x2="13.6" y2="29.5"/>
	<line class="st0" x1="13.6" y1="16.5" x2="85.3" y2="16.5"/>
</g>
</svg>
